0.418001	0.801347	0.1929
0.476596	0.822478	0.15
0.523286	0.879222	0.1206
0.569092	0.964426	0.1072
0.624895	 1.00695	0.1021
0.673279	 1.08506	0.0981
0.718786	 1.12762	0.0981
0.774698	 1.14884	0.0981
0.834784	 1.20561	0.1068
0.942917	 1.22676	0.1109
1.05503	         1.26214	0.1286
1.18071          1.26197	0.1928
1.39774	         1.27593	0.2143
1.73455	         1.24715	0.25

