0.384676	0.491873	0.0557
0.639146	0.83634		0.03665
0.896609	0.951279	0.02635
1.15031		0.986745	0.01905
1.39484		0.986878	0.01025
1.64431		0.989933	0.01025
1.91125		0.981213	0.01025
2.14962		0.969529	0.01025
2.40637		0.969607	0.01025
2.66858		0.954972	0.01025
2.89061		0.952086	0.01025
3.16069		0.949206	0.01025
3.4076		0.940435	0.01025
3.65657		0.934601	0.01025
3.88702		0.928761	0.01025	
4.19067		0.928813	0.01025
4.41309		0.925907	0.01025
4.64731	        0.923001	0.01025
4.94019	        0.91422	        0.01025
5.55631		0.908419	0.01025
6.48878	        0.902643	0.01025
7.61344	        0.89393	        0.01025
8.52279	        0.894008	0.01025
9.58572	        0.888206	0.01025
10.5804	        0.888274	0.01025
11.6234	        0.89128	        0.01025
12.5905	        0.885453	0.01947
13.5104	        0.885501	0.02637
14.5659	        0.888494	0.02637
15.6301	        0.885602	0.02701
16.4597	        0.888579	0.03651
17.6623	        0.888627	0.0366
18.4256	        0.888656	0.03712
19.4035	        0.885751	0.03824
22.5536	        0.885854	0.02003

