0.233708	0.252411	0.08065
0.408919	0.475472	0.0997
0.604087	0.628092	0.1114
0.81232	        0.592872	0.1114
1.05697	        0.945073	0.14955
1.34968  	0.953878	0.17885
1.75617 	0.874633	0.2038
2.51037	         1.03312	0.2815

