0.674464	0.188714	0.0586
0.898963	0.485876	0.0918
1.07283	        0.693084	0.0964
1.28033         0.744041	0.0996
1.5621          0.802834	0.09765
1.66919         0.912275	0.12105
1.90589         0.849907	0.13865
2.3773	        0.912628	0.13865

