0.690073	0.0976562	0.06599
0.891011	0.121094	0.03115
1.12806	        0.175781	0.04109
1.29448 	0.21875 	0.03864
1.45654 	0.144531	0.06901
1.57569 	0.195312	0.06782
1.88066 	0.335938	0.07975
2.20095 	0.445312	0.0895
2.73226 	0.3125          0.08755

