0.451011	0.0351562	0.0215
0.627131	0.152344	0.0299
0.891404	0.371094	0.0547
1.11051	        0.484375	0.0918
1.38347	        0.585938	0.1192
2.01016	        0.777344	0.16015
4.24379	        0.742188	0.26365

